…
> `tidyr::pivot_wider()`

``` r
tidyr::pivot_wider(
  chick_weight, names_from = Time, values_from = weight
)
```

    # A tibble: 50 × 13
       Chick   `0`   `2`   `4`   `6`   `8`  `10`  `12`  `14`  `16`  `18`  `20`  `21`
       <chr> <dbl> <dbl> <dbl> <dbl> <dbl> <dbl> <dbl> <dbl> <dbl> <dbl> <dbl> <dbl>
     1 Chic…    42    51    59    64    76    93   106   125   149   171   199   205
     2 Chic…    40    49    58    72    84   103   122   138   162   187   209   215
     3 Chic…    43    39    55    67    84    99   115   138   163   187   198   202
     4 Chic…    42    49    56    67    74    87   102   108   136   154   160   157
     5 Chic…    41    42    48    60    79   106   141   164   197   199   220   223
     6 Chic…    41    49    59    74    97   124   141   148   155   160   160   157
     7 Chic…    41    49    57    71    89   112   146   174   218   250   288   305
     8 Chic…    42    50    61    71    84    93   110   116   126   134   125    NA
     9 Chic…    42    51    59    68    85    96    90    92    93   100   100    98
    10 Chic…    41    44    52    63    74    81    89    96   101   112   120   124
    # ℹ 40 more rows
